{
  "current": {
    "color_text": "#222222",
    "color_body_text": "#222222",
    "color_button": "#222222",
    "social_twitter_link": "#",
    "social_facebook_link": "#",
    "social_instagram_link": "#",
    "enable_ajax": false,
    "sections": {
      "header": {
        "type": "header",
        "settings": {
          "align_logo": "left",
          "logo": "shopify:\/\/shop_images\/imgpsh_fullsize_anim_1.png",
          "logo_max_width": 155,
          "main_linklist": "main-menu-right",
          "main_linklist2": "new",
          "main_linklist33": "mobile-menu",
          "message": false,
          "home_page_only": true,
          "message_text": "Announce something here",
          "message_link": "",
          "color_bg": "#3a3a3a",
          "color_text": "#ffffff"
        }
      },
      "hero-1": {
        "type": "hero",
        "settings": {
          "image": "shopify:\/\/shop_images\/MM_hero_homepage_03_1_2x_1512x_6f2af814-1c5b-43e9-a682-30d9a119a0a6.jpg",
          "m_image": "shopify:\/\/shop_images\/Screen_Shot_2021-10-28_at_11.46.27_PM.jpg",
          "alignment": "top",
          "hero_layout": "full_width",
          "hero_size": "large",
          "text_size": "large",
          "title": "Memories <em>on Canvas<\/em>",
          "text": "<p>Cusrom Painting Kit Made From Your Favorite Photo<\/p>",
          "button_label": "LEARN MORE",
          "button_link": "shopify:\/\/products\/custom-painting-kit"
        }
      },
      "feature-row": {
        "type": "feature-row",
        "disabled": true,
        "settings": {
          "image": "shopify:\/\/shop_images\/Screen_Shot_2021-08-29_at_2.36_1_a93645c6-451f-4de4-b157-56f7d1615a80.png",
          "layout": "left",
          "title": "Image with text",
          "text": "<p>Pair large text with an image to give focus to your chosen product, collection, or blog post. Add details on availability, style, or even provide a review.<\/p>",
          "button_label": "",
          "button_link": ""
        }
      },
      "feature-columns": {
        "type": "feature-columns",
        "disabled": true,
        "blocks": {
          "feature-columns-0": {
            "type": "text_block",
            "settings": {
              "enable_image": true,
              "title": "Add a title or tagline",
              "text": "<p>Share blog posts, products, or promotions with your customers. Use this text to describe products, share details on availability and style, or as a space to display recent reviews or FAQs.<\/p>",
              "button_label": "",
              "button_link": ""
            }
          },
          "feature-columns-1": {
            "type": "text_block",
            "settings": {
              "enable_image": true,
              "title": "Add a title or tagline",
              "text": "<p>Share blog posts, products, or promotions with your customers. Use this text to describe products, share details on availability and style, or as a space to display recent reviews or FAQs.<\/p>",
              "button_label": "",
              "button_link": ""
            }
          },
          "feature-columns-2": {
            "type": "text_block",
            "settings": {
              "enable_image": true,
              "title": "Add a title or tagline",
              "text": "<p>Share blog posts, products, or promotions with your customers. Use this text to describe products, share details on availability and style, or as a space to display recent reviews or FAQs.<\/p>",
              "button_label": "",
              "button_link": ""
            }
          }
        },
        "block_order": [
          "feature-columns-0",
          "feature-columns-1",
          "feature-columns-2"
        ],
        "settings": {
          "title": "",
          "align_text": "left"
        }
      },
      "collection": {
        "type": "collection",
        "disabled": true,
        "settings": {
          "title": "Featured collection",
          "collection": "frontpage",
          "grid": 4,
          "rows": 2,
          "show_vendor": false,
          "show_view_all": false
        }
      },
      "quotes": {
        "type": "quotes",
        "disabled": true,
        "blocks": {
          "quotes-0": {
            "type": "quote",
            "settings": {
              "quote": "<p>Add customer reviews and testimonials to showcase your store’s happy customers.<\/p>",
              "author": "Author's name"
            }
          },
          "quotes-1": {
            "type": "quote",
            "settings": {
              "quote": "<p>Add customer reviews and testimonials to showcase your store’s happy customers.<\/p>",
              "author": "Author's name"
            }
          },
          "quotes-2": {
            "type": "quote",
            "settings": {
              "quote": "<p>Add customer reviews and testimonials to showcase your store’s happy customers.<\/p>",
              "author": "Author's name"
            }
          }
        },
        "block_order": [
          "quotes-0",
          "quotes-1",
          "quotes-2"
        ],
        "settings": {
          "title": ""
        }
      },
      "image-bar": {
        "type": "image-bar",
        "disabled": true,
        "blocks": {
          "image-bar-0": {
            "type": "image",
            "settings": {
              "alignment": "center",
              "link": "",
              "cta_label": ""
            }
          },
          "image-bar-1": {
            "type": "image",
            "settings": {
              "alignment": "center",
              "link": "",
              "cta_label": ""
            }
          },
          "image-bar-2": {
            "type": "image",
            "settings": {
              "alignment": "center",
              "link": "",
              "cta_label": ""
            }
          },
          "f24430b7-e3cb-4bfa-bdb8-3becfa0944ea": {
            "type": "image",
            "settings": {
              "alignment": "center",
              "link": "",
              "cta_label": ""
            }
          }
        },
        "block_order": [
          "image-bar-0",
          "image-bar-1",
          "image-bar-2",
          "f24430b7-e3cb-4bfa-bdb8-3becfa0944ea"
        ],
        "settings": {
          "section_height": "medium"
        }
      },
      "footer": {
        "type": "footer",
        "blocks": {
          "d3fd3ae0-eea8-43e9-9791-80e6a4c6e0d9": {
            "type": "text",
            "settings": {
              "title": "mymasterpiece",
              "text": "",
              "paragraph": "<svg xmlns=\"http:\/\/www.w3.org\/2000\/svg\" viewbox=\"0 0 1094.38 74.91\"><defs><style>.cls-1{fill:#fff;}<\/style><\/defs><g id=\"Layer_2\" data-name=\"Layer 2\"><g id=\"Layer_1-2\" data-name=\"Layer 1\"><path class=\"cls-1\" d=\"M0,1.54H13.85L38.48,32.32,63.11,1.54H77V73.37H61.57V26.17L38.48,54.9,15.39,26.17v47.2H0ZM128.78,47.72,101.59,1.54h18l16.72,30.78h.41L153.41,1.54h18l-27.2,46.18V73.37H128.78ZM206.25,1.54h13.86l24.63,30.78L269.36,1.54h13.86V73.37h-15.4V26.17L244.74,54.9,221.65,26.17v47.2h-15.4Zm130.32,0H354l27.71,71.83H365.31L359.15,57H331.44l-6.15,16.42H308.87ZM354,43.1,345.5,19.5h-.41l-8.52,23.6Zm56.44,10.26a20.13,20.13,0,0,0,4.41,3.9,22.09,22.09,0,0,0,12.52,3.8c8.21,0,11.8-3.59,11.8-8.21,0-12.21-35.92-6.78-35.92-31.81,0-11.29,9.75-21,26.17-21A34.39,34.39,0,0,1,447.5,4.93a31.43,31.43,0,0,1,6.05,4.82L443.29,20a25.9,25.9,0,0,0-3.59-3.08A17.71,17.71,0,0,0,430,13.85c-7.8,0-10.77,3.08-10.77,7.19,0,12.21,35.91,6.77,35.91,31.81,0,11.8-10.26,22.06-27.19,22.06a38.87,38.87,0,0,1-20.83-5.64,27.17,27.17,0,0,1-6.88-5.65ZM494.6,15.91H474.08V1.54h56.44V15.91H510V73.37H494.6ZM557.71,1.54h53.36V15.91h-38V29.76h29.76V43.61H573.1V59h39V73.37H557.71Zm84.14,0h31.81c15.39,0,25.14,9.75,25.14,24.11,0,8.21-3,13.55-6.15,16.73a18.63,18.63,0,0,1-6.16,4.31l14.88,26.68H684.44l-12.83-23.6H657.24v23.6H641.85Zm31.3,33.86a9.32,9.32,0,0,0,9.75-9.75,9.32,9.32,0,0,0-9.75-9.74H657.24V35.4Zm57-33.86h30.27C775.66,1.54,786,11.7,786,25.65s-10.36,24.12-25.65,24.12H745.49v23.6H730.1ZM759.86,35.4c6.15,0,10.26-4,10.26-9.75s-4.11-9.74-10.26-9.74H745.49V35.4ZM815.78,1.54h15.39V73.37H815.78Zm49.77,0h53.36V15.91h-38V29.76H910.7V43.61H880.94V59h39V73.37H865.55Zm147.25,59a39.84,39.84,0,0,1-7.7,7.19A40,40,0,0,1,982,74.91c-22.16,0-39-16.93-39-37.45S959.85,0,982,0a38.44,38.44,0,0,1,30.28,14.37L1002,24.63a30.6,30.6,0,0,0-5.23-5.13A24.16,24.16,0,0,0,982,14.37a23.09,23.09,0,0,0,0,46.17,25.79,25.79,0,0,0,15.29-5.13,24.8,24.8,0,0,0,5.24-5.13Zm27.19-59h53.36V15.91h-38V29.76h29.76V43.61h-29.76V59h39V73.37H1040Z\"><\/path><\/g><\/g><\/svg>\n<ul>\n<li><a href=\"https:\/\/instagram.com\/mymasterpiecestore\" target=\"_blank\"><i class=\"fa fa-instagram\"><\/i><\/a><\/li>\n<li><a href=\"https:\/\/m.facebook.com\/mymasterpiecestore\" target=\"_blank\"><i class=\"fa fa-facebook-f\"><\/i><\/a><\/li>\n<li><a href=\"#\" target=\"_blank\"><i class=\"fa fa-youtube-play\"><\/i>\n<\/a><\/li>\n\n<\/ul>",
              "paragraph2": ""
            }
          },
          "93795825-2871-4a9d-92ff-d1f58e79e3cc": {
            "type": "link_list",
            "settings": {
              "title": "",
              "menu": "footer"
            }
          },
          "3d890921-548f-41dc-a276-cc7bfe8c6975": {
            "type": "text",
            "settings": {
              "title": "Talk about your business",
              "text": "",
              "paragraph": "",
              "paragraph2": "<p><a href=\"#\">@mymasterpieceshop <\/a><\/p>\n<p>\n<a href=\"mailto:contact@mymasterpiece.shop\">contact@mymasterpiece.shop<\/a><\/p>\n<div class=\"telliphone\">\n<a href=\"mailto:+%20347.206.2764\">+ 347.206.2764<\/a>\n<\/div>\n<div class=\"address_f\">\n<p>236 N12th Street,<br>Brooklyn, NY, 11211<\/p>\n<\/div>"
            }
          }
        },
        "block_order": [
          "d3fd3ae0-eea8-43e9-9791-80e6a4c6e0d9",
          "93795825-2871-4a9d-92ff-d1f58e79e3cc",
          "3d890921-548f-41dc-a276-cc7bfe8c6975"
        ],
        "settings": {
          "show_payment_icons": false,
          "color_footer_bg": "#222222",
          "color_footer_text": "#ffffff",
          "show_locale_selector": true,
          "show_currency_selector": true
        }
      },
      "custom-product-banner": {
        "type": "custom-product-banner",
        "settings": {
          "image": "shopify:\/\/shop_images\/Screen_Shot_2021-08-24_at_1.33.png",
          "heading": "Finally,  you can paint art yourself",
          "paragraph": "<p><strong>Personalized Painting Kit<\/strong><\/p>",
          "button_label": "UPLOAD YOUR PHOTO",
          "button_link": "",
          "button_label2": "PHOTO guidelines",
          "button_link2": ""
        }
      },
      "custom-product-template": {
        "type": "custom-product-template",
        "settings": {
          "show_quantity_selector": true,
          "show_vendor": false,
          "enable_payment_button": true,
          "show_share_buttons": true,
          "media_size": "medium",
          "enable_image_zoom": true,
          "enable_video_looping": false
        }
      },
      "product-recommendations": {
        "type": "product-recommendations",
        "settings": {
          "show_product_recommendations": true,
          "heading": "You may also like",
          "show_vendor": false
        }
      },
      "how-it-work-prod": {
        "type": "how-it-work-prod",
        "blocks": {
          "24899b94-e3c7-429c-86f5-690bfd9778c6": {
            "type": "text",
            "settings": {
              "paragraph": "<p>7 Days Delivery<\/p>"
            }
          },
          "a0dff8ed-43f3-4a4e-b594-bdcf523b9e18": {
            "type": "text",
            "settings": {
              "paragraph": "<p>Made in USA<\/p>"
            }
          },
          "17d3c3e0-9558-4297-9e19-6c919935a2c7": {
            "type": "text",
            "settings": {
              "paragraph": "<p>Handcrufted<\/p>"
            }
          },
          "e92fcc4e-3419-43b9-90dd-2f6b113278b9": {
            "type": "text",
            "settings": {
              "paragraph": "<p>7 Days Delivery<\/p>"
            }
          },
          "e2df251d-7f82-4e38-8d57-e7aa0d5ea88b": {
            "type": "text",
            "settings": {
              "paragraph": "<p>Made in USA<\/p>"
            }
          },
          "50d79233-5a04-4fe5-8089-5323bb9d1c6c": {
            "type": "text",
            "settings": {
              "paragraph": "<p>Handcrufted<\/p>"
            }
          },
          "53f91304-3441-46dd-92fe-53d590e6c235": {
            "type": "text",
            "settings": {
              "paragraph": "<p>7 Days Delivery<\/p>"
            }
          },
          "d1322b17-29c1-42b7-a042-9875eeeaa621": {
            "type": "text",
            "settings": {
              "paragraph": "<p>Made in USA<\/p>"
            }
          },
          "28f25a90-cfab-4fb6-8248-29d29a6441cb": {
            "type": "text",
            "settings": {
              "paragraph": "<p>Handcrufted<\/p>"
            }
          }
        },
        "block_order": [
          "24899b94-e3c7-429c-86f5-690bfd9778c6",
          "a0dff8ed-43f3-4a4e-b594-bdcf523b9e18",
          "17d3c3e0-9558-4297-9e19-6c919935a2c7",
          "e92fcc4e-3419-43b9-90dd-2f6b113278b9",
          "e2df251d-7f82-4e38-8d57-e7aa0d5ea88b",
          "50d79233-5a04-4fe5-8089-5323bb9d1c6c",
          "53f91304-3441-46dd-92fe-53d590e6c235",
          "d1322b17-29c1-42b7-a042-9875eeeaa621",
          "28f25a90-cfab-4fb6-8248-29d29a6441cb"
        ],
        "settings": {
          "heading": "How It Works"
        }
      },
      "why-mypiece": {
        "type": "why-mypiece",
        "settings": {
          "heading": "Why MyMasterpiece?",
          "heading2": "Handcrafted",
          "paragraph2": "<p>Our team of digital artists will create an illustration from your photo that is fun to paint<\/p>",
          "heading3": "Shipped in 7 days",
          "paragraph3": "<p>Painting is exciting, but waiting is not.  You will start your masterpiece in less than a week<\/p>",
          "heading4": "Made in USA",
          "paragraph4": "<p>Our products are produced and carefuly packed in small shop in California<\/p>",
          "heading5": "Stretched Canvas",
          "paragraph5": "<p>Our high-quality canvases  are framed and ready to put  into an easel<\/p>",
          "image": "shopify:\/\/shop_images\/Screen_Shot_2021-08-29_at_2.36_1.png"
        }
      },
      "what-the-kit": {
        "type": "what-the-kit",
        "blocks": {
          "de83d461-ef08-4fa5-a740-731fc15f720e": {
            "type": "text",
            "settings": {
              "image": "shopify:\/\/shop_images\/Mask_Group.png",
              "heading": "Everything you need",
              "paragraph": "<p>Everything you need In the package, you will find everything you need to start painting your first masterpiece.<\/p>"
            }
          },
          "b85de2a9-3898-4271-a5af-51b13e6ee375": {
            "type": "text",
            "settings": {
              "image": "shopify:\/\/shop_images\/Mask_Group.png",
              "heading": "Stretched Canvas",
              "paragraph": "<p>Everything you need In the package, you will find everything you need to start painting your first masterpiece.<\/p>"
            }
          },
          "9d299f47-e96a-4d50-888f-eac8a174e49f": {
            "type": "text",
            "settings": {
              "image": "shopify:\/\/shop_images\/Mask_Group.png",
              "heading": "6 Brushes",
              "paragraph": "<p>Everything you need In the package, you will find everything you need to start painting your first masterpiece.<\/p>"
            }
          },
          "ee168ff4-a337-4862-8cdf-1559ba116f44": {
            "type": "text",
            "settings": {
              "image": "shopify:\/\/shop_images\/Mask_Group.png",
              "heading": "6 Brushes",
              "paragraph": "<p>Everything you need In the package, you will find everything you need to start painting your first masterpiece.<\/p>"
            }
          }
        },
        "block_order": [
          "de83d461-ef08-4fa5-a740-731fc15f720e",
          "b85de2a9-3898-4271-a5af-51b13e6ee375",
          "9d299f47-e96a-4d50-888f-eac8a174e49f",
          "ee168ff4-a337-4862-8cdf-1559ba116f44"
        ],
        "settings": {
          "heading11": "What’s <br> in the kit?",
          "paragraph11": "<p>Stretched Canvas <\/p><p>6 Brushes <\/p><p>36 Acryl Paint Jars<\/p><p> Painting Map <\/p><p>Digital Art<\/p>",
          "button_label": "ORDER NOW",
          "button_link": ""
        }
      },
      "img-slider-only": {
        "type": "img-slider-only",
        "blocks": {
          "38e9a2d1-9ffb-4668-b2e5-595f6d1b188c": {
            "type": "text",
            "settings": {
              "image": "shopify:\/\/shop_images\/Screen_Shot_2021-08-24_at_1.33_2.png"
            }
          },
          "a41a1dc1-0b8a-469b-84c7-36570e4888bf": {
            "type": "text",
            "settings": {
              "image": "shopify:\/\/shop_images\/Screen_Shot_2021-08-24_at_1.33_3.png"
            }
          },
          "6e1f0220-3790-4168-be05-b90d83f41a4c": {
            "type": "text",
            "settings": {
              "image": "shopify:\/\/shop_images\/Screen_Shot_2021-08-24_at_1.33_2.png"
            }
          },
          "1ad9b30b-d9c8-424c-b186-a889d0e60ddf": {
            "type": "text",
            "settings": {
              "image": "shopify:\/\/shop_images\/Screen_Shot_2021-08-24_at_1.33_4.png"
            }
          }
        },
        "block_order": [
          "38e9a2d1-9ffb-4668-b2e5-595f6d1b188c",
          "a41a1dc1-0b8a-469b-84c7-36570e4888bf",
          "6e1f0220-3790-4168-be05-b90d83f41a4c",
          "1ad9b30b-d9c8-424c-b186-a889d0e60ddf"
        ],
        "settings": {
          "heading": ""
        }
      },
      "testimonial-three": {
        "type": "testimonial-three",
        "blocks": {
          "648e70c8-6abb-4e0f-a1e5-34793bb5bc03": {
            "type": "text",
            "settings": {
              "image": "shopify:\/\/shop_images\/Mask_Group_1.png",
              "subheading": "\"Now I have a beautiful painting of my family that I can say I made myself!\"",
              "subheading2": "– Sarah R."
            }
          },
          "ab528b9e-524e-4346-b2f7-eecdb337c02a": {
            "type": "text",
            "settings": {
              "image": "shopify:\/\/shop_images\/Mask_Group_1.png",
              "subheading": "\"Now I have a beautiful painting of my family that I can say I made myself!\"",
              "subheading2": "– Sarah R."
            }
          },
          "4cf65bb6-40cd-4852-a0ac-4a840e7afd67": {
            "type": "text",
            "settings": {
              "image": "shopify:\/\/shop_images\/Mask_Group_1.png",
              "subheading": "\"Now I have a beautiful painting of my family that I can say I made myself!\"",
              "subheading2": "– Sarah R."
            }
          }
        },
        "block_order": [
          "648e70c8-6abb-4e0f-a1e5-34793bb5bc03",
          "ab528b9e-524e-4346-b2f7-eecdb337c02a",
          "4cf65bb6-40cd-4852-a0ac-4a840e7afd67"
        ],
        "settings": {
          "heading": ""
        }
      },
      "painting-product-template": {
        "type": "painting-product-template",
        "settings": {
          "heading22": "Photo guidelines",
          "paragraph22": "<p>Please follow our guidelines to be fully satisfied with your first masterpiece.<\/p>",
          "paragraph33": "<p>Faces in focus<\/p>",
          "paragraph44": "<p>Up close<\/p>",
          "paragraph55": "<p>Too blurry<\/p>",
          "paragraph66": "<p>Good light<\/p>",
          "paragraph77": "<p>Too far away<\/p>",
          "paragraph88": "<p>Too dark<\/p>",
          "show_quantity_selector": false,
          "show_vendor": false,
          "enable_payment_button": false,
          "show_share_buttons": true,
          "media_size": "medium",
          "enable_image_zoom": true,
          "enable_video_looping": false
        }
      },
      "frame-product-template": {
        "type": "frame-product-template",
        "settings": {
          "show_quantity_selector": false,
          "show_vendor": false,
          "enable_payment_button": false,
          "show_share_buttons": true,
          "media_size": "medium",
          "enable_image_zoom": false,
          "enable_video_looping": false
        }
      },
      "painting-product-Bottomtemplate": {
        "type": "painting-product-Bottomtemplate",
        "blocks": {
          "42cc01fb-141a-489b-a619-8897f7ea9655": {
            "type": "text",
            "settings": {
              "heading": "Handcrafted",
              "paragraph": "<p>Our team of digital artists will create an illustration from your photo that is fun to paint<\/p>"
            }
          },
          "67abd573-29d4-47ec-811c-2e51303c4c44": {
            "type": "text",
            "settings": {
              "heading": "Shipped In 7 Days",
              "paragraph": "<p>Painting is exciting, but waiting is not You will start your masterpiece in less than a week<\/p>"
            }
          },
          "30187e24-e833-43d3-82ee-4f9b1d5814d4": {
            "type": "text",
            "settings": {
              "heading": "Made In USA",
              "paragraph": "<p>Our products are produced and carefuly packed in small shop in California<\/p>"
            }
          },
          "71fe9aad-f369-40d7-b1ff-ec2d862038fa": {
            "type": "text",
            "settings": {
              "heading": "Stretched Canvas",
              "paragraph": "<p>Our high-quality canvases are framed and ready to put into an easel<\/p>"
            }
          }
        },
        "block_order": [
          "42cc01fb-141a-489b-a619-8897f7ea9655",
          "67abd573-29d4-47ec-811c-2e51303c4c44",
          "30187e24-e833-43d3-82ee-4f9b1d5814d4",
          "71fe9aad-f369-40d7-b1ff-ec2d862038fa"
        ],
        "settings": {
          "heading22": "Why MyMasterpiece?",
          "heading222": "Why <br> MyMasterpiece?",
          "heading1": "Handcrafted",
          "paragraph1": "<p>Our team of digital artists will create an illustration from your photo that is fun to paint<\/p>",
          "heading2": "Shipped in 7 days",
          "paragraph2": "<p>Painting is exciting, but waiting is not You will start your masterpiece in less than a week<\/p>",
          "heading3": "Made in USA",
          "paragraph3": "<p>Our products are produced and carefuly packed in small shop in California<\/p>",
          "heading4": "Stretched Canvas",
          "paragraph4": "<p>Our high-quality canvases are framed and ready to put into an easel<\/p>"
        }
      },
      "loox-carousel-reviews": {
        "type": "loox-carousel-reviews",
        "settings": {
          "max_width": 1440,
          "text_color": "#222222",
          "background_color": "#f1e6d3",
          "arrows_color": "#222222",
          "dots_color": "",
          "button_color": "",
          "show_more": false,
          "only_photos": false,
          "use_widget_font": false,
          "product_handle": "custom-painting-kit"
        }
      },
      "review-slider-beaut": {
        "type": "review-slider-beaut",
        "blocks": {
          "edaa2005-e526-480b-98dc-3a18463f4092": {
            "type": "text",
            "settings": {
              "image": "shopify:\/\/shop_images\/Screen-Shot-2021-10-18-at-12.47.58-AM2.png",
              "paragraph": "<p>\"First time I did the paint by numbers and it was so fun! I just put on some Netflix and started! It’s so easy to do and looks awesome when done.\"<\/p>",
              "paragraph22": "<p>- Vanessa D.<\/p>"
            }
          },
          "4bb563f7-bbb3-4191-a556-96f6bec333bb": {
            "type": "text",
            "settings": {
              "image": "shopify:\/\/shop_images\/Screen-Shot-2021-10-18-at-12.47.58-AM1.png",
              "paragraph": "<p>\"My first paint by number completed, and I have to say I love it! Soo addicting and relaxing!\"<\/p>",
              "paragraph22": "<p>- Catherine A.<\/p>"
            }
          },
          "2058f709-c48f-48d8-acd1-ac857fc9223d": {
            "type": "text",
            "settings": {
              "image": "shopify:\/\/shop_images\/Screen-Shot-2021-10-18-at-12.47.58-AM_1b942bec-0d87-4211-98e3-7fd0ac641588.png",
              "paragraph": "<p>\"Just absolutely beautiful. Just like the picture. Numerous compliments. Definitely will order again. Very pleased\"<\/p>",
              "paragraph22": "<p>- Paula K.<\/p>"
            }
          }
        },
        "block_order": [
          "edaa2005-e526-480b-98dc-3a18463f4092",
          "4bb563f7-bbb3-4191-a556-96f6bec333bb",
          "2058f709-c48f-48d8-acd1-ac857fc9223d"
        ],
        "settings": {
          "paragraph3": ""
        }
      },
      "loox-all-reviews": {
        "type": "loox-all-reviews",
        "settings": {
          "only_photos": false,
          "hide_thumbnails": false,
          "product_handle": "",
          "aggregated": true,
          "data-limit": 20,
          "maxwidth": 1080
        }
      },
      "img-slider-too": {
        "type": "img-slider-too",
        "blocks": {
          "95e0bba7-2ab1-40cc-979e-a3e2ffcc7137": {
            "type": "text",
            "settings": {
              "image": "shopify:\/\/shop_images\/MM_productpage_instruction_01.jpg",
              "paragraph": ""
            }
          },
          "ff569fa7-0e38-4e1c-a83b-f1c40e219203": {
            "type": "text",
            "settings": {
              "image": "shopify:\/\/shop_images\/MM_productpage_instruction_02.jpg",
              "paragraph": ""
            }
          },
          "395c6360-fd16-4c81-acd6-c733441b5317": {
            "type": "text",
            "settings": {
              "image": "shopify:\/\/shop_images\/MM_productpage_instruction_03.jpg",
              "paragraph": ""
            }
          },
          "edbd1db2-ef49-4989-89db-9d9054269a67": {
            "type": "text",
            "settings": {
              "image": "shopify:\/\/shop_images\/MM_productpage_instruction_04.jpg",
              "paragraph": ""
            }
          },
          "5ef664b9-4382-4600-b982-2da5205edf6a": {
            "type": "text",
            "settings": {
              "image": "shopify:\/\/shop_images\/MM_productpage_instruction_05.jpg",
              "paragraph": ""
            }
          },
          "6e2c3cd5-232d-4eba-a821-b4fbaedd0ab6": {
            "type": "text",
            "settings": {
              "image": "shopify:\/\/shop_images\/MM_productpage_instruction_06.jpg",
              "paragraph": ""
            }
          }
        },
        "block_order": [
          "95e0bba7-2ab1-40cc-979e-a3e2ffcc7137",
          "ff569fa7-0e38-4e1c-a83b-f1c40e219203",
          "395c6360-fd16-4c81-acd6-c733441b5317",
          "edbd1db2-ef49-4989-89db-9d9054269a67",
          "5ef664b9-4382-4600-b982-2da5205edf6a",
          "6e2c3cd5-232d-4eba-a821-b4fbaedd0ab6"
        ],
        "settings": {
          "sectionbg": "#f2e4d8",
          "paragraph3": ""
        }
      },
      "what-is-kit": {
        "type": "what-is-kit",
        "blocks": {
          "113b3bbd-0f01-4b5c-a332-adfc483a6844": {
            "type": "text",
            "settings": {
              "image": "shopify:\/\/shop_images\/MyMasterpiece_Whats-in-the-kit0349_a18ea9f1-b36a-4e28-996a-b69145cb619e.jpg",
              "heading22": "Everything you need",
              "paragraph22": "<p>In the package, you will find everything you need to start painting your first masterpiece.<\/p>"
            }
          },
          "a44fecdb-c6ef-439f-8b39-57fbe8c8a6db": {
            "type": "text",
            "settings": {
              "image": "shopify:\/\/shop_images\/MyMasterpiece_Whats-in-the-kit0362_50510b56-9aab-47ff-bfb4-941becc14855.jpg",
              "heading22": "Stretched Canvas",
              "paragraph22": "<p>No stretching necessary with your ready-to-hang high-quality canvas, manufactured here in the USA<\/p>"
            }
          },
          "e0d0c796-aec1-4ffc-9bc7-239b27c70e9d": {
            "type": "text",
            "settings": {
              "image": "shopify:\/\/shop_images\/MyMasterpiece_Whats-in-the-kit0367_fd2a60c4-9b6e-4ab2-be56-a4170d0147e5.jpg",
              "heading22": "Brushes",
              "paragraph22": "<p>Beautiful brushes ranging from wide to pointed make painting your masterpiece easy and fun<\/p>"
            }
          },
          "7e3ec109-3e63-4a13-9e50-e83dfe8f00da": {
            "type": "text",
            "settings": {
              "image": "shopify:\/\/shop_images\/MyMasterpiece_Whats-in-the-kit0376_0a2cf8e2-66b8-4d79-afa7-9e8e0322954d.jpg",
              "heading22": "Acryl Paint Jars",
              "paragraph22": "<p>Neatly labeled and prepared especially for your custom-designed masterpiece<\/p>"
            }
          },
          "1eaeac48-aa0a-4e09-9b91-1548bcd22322": {
            "type": "text",
            "settings": {
              "image": "shopify:\/\/shop_images\/MyMasterpiece_Whats-in-the-kit0380_b4a8aace-9ef1-45e1-ba1d-847d80e19949.jpg",
              "heading22": "Photo Card",
              "paragraph22": "<p>A postcard-sized high resolution print of your masterpiece for reference and display<\/p>"
            }
          },
          "fc977701-d2b6-419e-b3c0-ad079d5788a1": {
            "type": "text",
            "settings": {
              "image": "shopify:\/\/shop_images\/MyMasterpiece_Whats-in-the-kit0383_c4975f13-b631-4515-88ac-67f528b2fc4f.jpg",
              "heading22": "Hardware",
              "paragraph22": "<p>Easy to install and hang your finished masterpiece!<\/p>"
            }
          }
        },
        "block_order": [
          "113b3bbd-0f01-4b5c-a332-adfc483a6844",
          "a44fecdb-c6ef-439f-8b39-57fbe8c8a6db",
          "e0d0c796-aec1-4ffc-9bc7-239b27c70e9d",
          "7e3ec109-3e63-4a13-9e50-e83dfe8f00da",
          "1eaeac48-aa0a-4e09-9b91-1548bcd22322",
          "fc977701-d2b6-419e-b3c0-ad079d5788a1"
        ],
        "settings": {
          "heading": "What’s <br> in the kit?",
          "paragraph3": "<p>Stretched Canvas 6 Brushes 36 Acryl Paint Jars Painting Map Digital Art<\/p>",
          "button_label": "ORDER NOW",
          "button_link": "#"
        }
      },
      "insta-social-newslr": {
        "type": "insta-social-newslr",
        "blocks": {
          "e9171513-178a-4eb3-afe1-501623f889c2": {
            "type": "text",
            "settings": {
              "paragraph": "<i class=\"fa fa-instagram\"><\/i>",
              "button_link": "#"
            }
          },
          "e8fbafd0-3b8b-4477-89c2-3d49d5b07113": {
            "type": "text",
            "settings": {
              "paragraph": "<i class=\"fa fa-facebook-f\"><\/i>",
              "button_link": "#"
            }
          },
          "f038f870-3e57-45b9-9399-c279c5c70be4": {
            "type": "text",
            "settings": {
              "paragraph": "<i class=\"fa fa-youtube\"><\/i>",
              "button_link": "#"
            }
          }
        },
        "block_order": [
          "e9171513-178a-4eb3-afe1-501623f889c2",
          "e8fbafd0-3b8b-4477-89c2-3d49d5b07113",
          "f038f870-3e57-45b9-9399-c279c5c70be4"
        ],
        "settings": {
          "heading": "Follows",
          "paragraph22": "",
          "paragraph33": ""
        }
      },
      "instafeed": {
        "type": "instafeed",
        "settings": {
          "heading_font": "helvetica_n4",
          "heading_size": 20,
          "feed_width": 100,
          "html_area": "<div id=\"insta-feed\"><\/div>"
        }
      },
      "newsletter": {
        "type": "newsletter",
        "settings": {
          "section_title": "Sign up for 10% off your first masterpiece",
          "subheading": "<p>Sign uo to be the first to know about new art, offersand other things<\/p>",
          "heading": "",
          "paragraph": "",
          "show_background": true
        }
      },
      "1633546353d363320e": {
        "type": "insta-social-newslr",
        "disabled": true,
        "blocks": {
          "0ae67035-f24d-41a8-a420-388896a55c23": {
            "type": "text",
            "settings": {
              "paragraph": "<i class=\"fa fa-instagram\"><\/i>",
              "button_link": "https:\/\/instagram.com\/mymasterpiecestore"
            }
          },
          "33be9d92-802d-4424-a639-3e3db05f0fc7": {
            "type": "text",
            "settings": {
              "paragraph": "<i class=\"fa fa-facebook-f\"><\/i>",
              "button_link": "https:\/\/m.facebook.com\/mymasterpiecestore\/"
            }
          },
          "c46f1045-6db3-450e-a59f-c48e84596279": {
            "type": "text",
            "settings": {
              "paragraph": "<i class=\"fa fa-youtube\"><\/i>",
              "button_link": ""
            }
          },
          "01f5d011-1f3f-4be1-8ce3-755505a31249": {
            "type": "text",
            "settings": {
              "paragraph": "<i class=\"fa fa-pinterest\"><\/i>",
              "button_link": ""
            }
          }
        },
        "block_order": [
          "0ae67035-f24d-41a8-a420-388896a55c23",
          "33be9d92-802d-4424-a639-3e3db05f0fc7",
          "c46f1045-6db3-450e-a59f-c48e84596279",
          "01f5d011-1f3f-4be1-8ce3-755505a31249"
        ],
        "settings": {
          "heading": "Follow us",
          "paragraph22": "",
          "paragraph33": ""
        }
      },
      "hero": {
        "type": "hero",
        "settings": {
          "image": "shopify:\/\/shop_images\/Screen_Shot_2021-10-06_at_1.18_1.png",
          "m_image": "shopify:\/\/shop_images\/Mask_Group.png",
          "alignment": "center",
          "hero_layout": "full_width",
          "hero_size": "medium",
          "text_size": "medium",
          "title": "Finally,<br>\nyou can paint art yourself",
          "text": "",
          "button_label": "",
          "button_link": ""
        }
      },
      "Frame_hero": {
        "type": "Frame_hero",
        "settings": {
          "image": "shopify:\/\/shop_images\/Screen_Shot_2021-10-06_at_1.18_1_b6a27aee-8587-4117-8c3b-67aa0360b80f.png",
          "m_image": "shopify:\/\/shop_images\/Screen_Shot_2021-08-29_at_2.36_1_a93645c6-451f-4de4-b157-56f7d1615a80.png",
          "alignment": "center",
          "hero_layout": "full_width",
          "hero_size": "medium",
          "text_size": "medium",
          "title": "Finally,<br>\nyou can paint art yourself",
          "text": "",
          "button_label": "",
          "button_link": ""
        }
      },
      "Paint_hero": {
        "type": "Paint_hero",
        "settings": {
          "fliprows": false,
          "image": "shopify:\/\/shop_images\/Screen_Shot_2021-10-06_at_1.18_1_b6a27aee-8587-4117-8c3b-67aa0360b80f.png",
          "m_image": "shopify:\/\/shop_images\/Screen_Shot_2021-08-29_at_2.36_1_a93645c6-451f-4de4-b157-56f7d1615a80.png",
          "alignment": "center",
          "hero_layout": "full_width",
          "hero_size": "medium",
          "text_size": "medium",
          "title": "Finally,<br>\nyou can paint art yourself",
          "text": "<p>personalized painting kit<\/p>",
          "button_label": "",
          "button_link": ""
        }
      },
      "How-it-work": {
        "type": "How-it-work",
        "blocks": {
          "70b275e8-eb16-4f87-9f84-4b9d33f69b58": {
            "type": "logo_image",
            "settings": {
              "image": "shopify:\/\/shop_images\/Group.png",
              "link": "",
              "heading": "<p>Upload <br\/>Your Photo<\/p>",
              "data": ""
            }
          },
          "9fcf18f7-1a4e-4c21-9e34-da038c6d4265": {
            "type": "logo_image",
            "settings": {
              "image": "shopify:\/\/shop_images\/Group_1.png",
              "link": "",
              "heading": "<p>Our Artists<br\/>Illustrate It<\/p>",
              "data": ""
            }
          },
          "73ecdc9a-4716-477c-906b-299b14bc5787": {
            "type": "logo_image",
            "settings": {
              "image": "shopify:\/\/shop_images\/3.png",
              "link": "",
              "heading": "<p>Paint Your <br\/>Masterpiece<\/p>",
              "data": ""
            }
          }
        },
        "block_order": [
          "70b275e8-eb16-4f87-9f84-4b9d33f69b58",
          "9fcf18f7-1a4e-4c21-9e34-da038c6d4265",
          "73ecdc9a-4716-477c-906b-299b14bc5787"
        ],
        "settings": {
          "title": "How it Works"
        }
      },
      "1633543889eeb59dd7": {
        "type": "featured-product",
        "settings": {
          "featured_product": "custom-painting-kit",
          "show_quantity_selector": false,
          "show_vendor": true,
          "show_description": false,
          "enable_payment_button": false,
          "show_share_buttons": false,
          "show_thumb": false,
          "media_size": "medium",
          "enable_image_zoom": true,
          "enable_video_looping": false
        }
      },
      "163547328170d081f0": {
        "type": "gift",
        "settings": {
          "icon_svg": "<svg xmlns=\"http:\/\/www.w3.org\/2000\/svg\" width=\"23\" height=\"17\" viewbox=\"0 0 23 17\" fill=\"none\">\n<path d=\"M11.5 6.13699C11.5 6.13699 11.7306 2.67816 13.46 1.17934C14.6129 0.199339 16.1694 0.37228 17.0341 1.29463C17.8988 2.21699 17.7259 3.54287 16.5729 4.58052C14.8435 6.07934 11.5 6.13699 11.5 6.13699Z\" stroke=\"#fff\" stroke-miterlimit=\"10\"><\/path>\n<path d=\"M11.5 6.13645C11.5 6.13645 11.3847 3.1388 9.94353 1.92821C8.90588 1.12115 7.52235 1.29409 6.77294 2.04351C6.02353 2.85056 6.19647 3.88821 7.17647 4.75292C8.67529 5.96351 10.4047 6.13645 11.5 6.13645Z\" stroke=\"#ffff\" stroke-miterlimit=\"10\"><\/path>\n<path d=\"M12.76 16.4795H21.16V9.75952\" stroke=\"#ffff\" stroke-miterlimit=\"10\"><\/path>\n<path d=\"M1.84003 9.75952V16.4795H10.24\" stroke=\"#ffff\" stroke-miterlimit=\"10\"><\/path>\n<path d=\"M12.4471 9.75941H22V6.39941H1V9.75941H10.5529\" stroke=\"#ffff\" stroke-miterlimit=\"10\"><\/path>\n<path d=\"M12.76 6.39941H10.24V16.4794H12.76V6.39941Z\" stroke=\"#ffff\" stroke-miterlimit=\"10\"><\/path>\n<\/svg>",
          "image": "shopify:\/\/shop_images\/Group_496.png",
          "title": "20% Off & Free Shipping"
        }
      },
      "16355305004f3edda0": {
        "type": "img-slider-too",
        "blocks": {
          "9bdec2d9-bff1-44f1-9b73-6ac97a14643a": {
            "type": "text",
            "settings": {
              "image": "shopify:\/\/shop_images\/Group_84.jpg",
              "paragraph": "<p><strong>Everything you need<\/strong><br\/>In the package, you will find everything<br\/>you need to start painting<br\/>your first masterpiece.<\/p>"
            }
          },
          "f9decf2f-9a03-49c1-803d-7297427693d7": {
            "type": "text",
            "settings": {
              "image": "shopify:\/\/shop_images\/Group_83.jpg",
              "paragraph": "<p><strong>Everything you need<\/strong><br\/>In the package, you will find everything<br\/>you need to start painting<br\/>your first masterpiece.<\/p>"
            }
          },
          "be339cd8-a19e-4d12-a0bf-3e3ed090b0ff": {
            "type": "text",
            "settings": {
              "image": "shopify:\/\/shop_images\/Group_92.jpg",
              "paragraph": "<p><strong>Everything you need<\/strong><br\/>In the package, you will find everything<br\/>you need to start painting<br\/>your first masterpiece.<\/p>"
            }
          },
          "ef764e67-33a8-452f-b707-f28f505c14a0": {
            "type": "text",
            "settings": {
              "image": "shopify:\/\/shop_images\/Group_91.jpg",
              "paragraph": "<p><strong>Everything you need<\/strong><br\/>In the package, you will find everything<br\/>you need to start painting<br\/>your first masterpiece.<\/p>"
            }
          }
        },
        "block_order": [
          "9bdec2d9-bff1-44f1-9b73-6ac97a14643a",
          "f9decf2f-9a03-49c1-803d-7297427693d7",
          "be339cd8-a19e-4d12-a0bf-3e3ed090b0ff",
          "ef764e67-33a8-452f-b707-f28f505c14a0"
        ],
        "settings": {
          "title": "What's<br> in the kit?",
          "description": "<p><strong>Stretched Canvas<\/strong><\/p><p><strong>6 Brushes<\/strong><\/p><p><strong>36 Acryl Paint Jars<\/strong><\/p><p><strong>Painting Map<\/strong><\/p><p><strong>Digital Art<\/strong><\/p>",
          "button_text": "Order Now",
          "button_url": "",
          "sectionbg": "",
          "paragraph3": ""
        }
      },
      "1635531152fd21787b": {
        "type": "order-masterpiece",
        "disabled": true,
        "blocks": {
          "a76c1aaa-7917-4970-8a6e-99b41a200fc5": {
            "type": "block",
            "settings": {
              "image": "shopify:\/\/shop_images\/MM_productpage_instruction_Email_01_cca1feed-e62e-41ce-9cdf-9a59b5381185.png",
              "pretitle": "Step #1",
              "title": "Pick Photo Folowing Guidlines"
            }
          },
          "e31d5544-8614-414e-9690-050f404d5ded": {
            "type": "block",
            "settings": {
              "image": "shopify:\/\/shop_images\/MM_productpage_instruction_Email_02_420eb839-d206-4c4f-99bd-3cd2cb114310.png",
              "pretitle": "Step #2",
              "title": "Upload Your Favorite Photo"
            }
          },
          "d0578f3b-e0f8-4c5d-ae0b-acc511a6aa02": {
            "type": "block",
            "settings": {
              "image": "shopify:\/\/shop_images\/MM_productpage_instruction_Email_03_f9db58e8-06a9-4c7c-b08e-fbd591eb5ed0.png",
              "pretitle": "Step #3",
              "title": "Select Canvas Size"
            }
          },
          "d334bc46-6d0e-4342-80a6-d00a162b5945": {
            "type": "block",
            "settings": {
              "image": "shopify:\/\/shop_images\/MM_productpage_instruction_Email_04_a46cb632-efba-41da-b20a-8cd332c2627b.png",
              "pretitle": "Step #4",
              "title": "Pick Characters Number"
            }
          },
          "b4becfc0-75f1-429a-b91a-4e6543364b8c": {
            "type": "block",
            "settings": {
              "image": "shopify:\/\/shop_images\/MM_productpage_instruction_Email_05_1c20e142-4cc9-40d7-9df6-011960fc50eb.png",
              "pretitle": "Step #5",
              "title": "Choose Background"
            }
          },
          "7c9f5324-26ee-4eb1-ac4c-bbad457950d8": {
            "type": "block",
            "settings": {
              "image": "shopify:\/\/shop_images\/MM_productpage_instruction_Email_06_2c019c0f-a31b-4799-8c11-cca63d9874ca.png",
              "pretitle": "Step #6",
              "title": "Select Frame"
            }
          }
        },
        "block_order": [
          "a76c1aaa-7917-4970-8a6e-99b41a200fc5",
          "e31d5544-8614-414e-9690-050f404d5ded",
          "d0578f3b-e0f8-4c5d-ae0b-acc511a6aa02",
          "d334bc46-6d0e-4342-80a6-d00a162b5945",
          "b4becfc0-75f1-429a-b91a-4e6543364b8c",
          "7c9f5324-26ee-4eb1-ac4c-bbad457950d8"
        ],
        "settings": {
          "Header_text": "How to Order Your Masterpiece",
          "order_btn": "START HERE",
          "btn_link": "shopify:\/\/products\/custom-painting-kit"
        }
      },
      "1635532034aad4f39e": {
        "type": "instafeed",
        "settings": {
          "heading_font": "helvetica_n4",
          "heading_size": 20,
          "feed_width": 100,
          "html_area": ""
        }
      },
      "1635532081e0631dd6": {
        "type": "newsletter",
        "settings": {
          "section_title": "Sign up for 10% off your first masterpiece",
          "subheading": "<p>Sign uo to be the first to know about new art, offersand other things<\/p>",
          "heading": "Image with text",
          "paragraph": "",
          "show_background": true
        }
      },
      "163559028337573968": {
        "type": "home-banner",
        "disabled": true,
        "settings": {
          "image": "shopify:\/\/shop_images\/MM_hero_homepage_02-1_1.png",
          "title": "Memories on Canvas",
          "text": "Cusrom Painting Kit Made From Your Favorite Photo",
          "btn_txt": "Learn More",
          "btn_lk": "https:\/\/mymasterpiece.store\/products\/custom-painting-kit"
        }
      },
      "gift2": {
        "type": "gift2",
        "settings": {
          "icon_svg": "<svg xmlns=\"http:\/\/www.w3.org\/2000\/svg\" width=\"23\" height=\"17\" viewbox=\"0 0 23 17\" fill=\"none\">\n<path d=\"M11.5 6.13699C11.5 6.13699 11.7306 2.67816 13.46 1.17934C14.6129 0.199339 16.1694 0.37228 17.0341 1.29463C17.8988 2.21699 17.7259 3.54287 16.5729 4.58052C14.8435 6.07934 11.5 6.13699 11.5 6.13699Z\" stroke=\"#fff\" stroke-miterlimit=\"10\"><\/path>\n<path d=\"M11.5 6.13645C11.5 6.13645 11.3847 3.1388 9.94353 1.92821C8.90588 1.12115 7.52235 1.29409 6.77294 2.04351C6.02353 2.85056 6.19647 3.88821 7.17647 4.75292C8.67529 5.96351 10.4047 6.13645 11.5 6.13645Z\" stroke=\"#ffff\" stroke-miterlimit=\"10\"><\/path>\n<path d=\"M12.76 16.4795H21.16V9.75952\" stroke=\"#ffff\" stroke-miterlimit=\"10\"><\/path>\n<path d=\"M1.84003 9.75952V16.4795H10.24\" stroke=\"#ffff\" stroke-miterlimit=\"10\"><\/path>\n<path d=\"M12.4471 9.75941H22V6.39941H1V9.75941H10.5529\" stroke=\"#ffff\" stroke-miterlimit=\"10\"><\/path>\n<path d=\"M12.76 6.39941H10.24V16.4794H12.76V6.39941Z\" stroke=\"#ffff\" stroke-miterlimit=\"10\"><\/path>\n<\/svg>",
          "title": "20% Off & Free Shipping"
        }
      },
      "product-template-giftcard": {
        "type": "product-template-giftcard",
        "settings": {
          "show_quantity_selector": false,
          "show_vendor": false,
          "enable_payment_button": false,
          "show_share_buttons": false,
          "media_size": "medium",
          "enable_image_zoom": true,
          "enable_video_looping": false
        }
      },
      "1639506353eba48a0e": {
        "type": "collection",
        "settings": {
          "title": "Bestsellers",
          "collection": "best-seller",
          "grid": 4,
          "rows": 2,
          "show_vendor": false,
          "show_view_all": true
        }
      },
      "163950656969ff1759": {
        "type": "collection-list",
        "blocks": {
          "163950656969ff1759-0": {
            "type": "featured_collection",
            "settings": {
              "collection": "best-seller"
            }
          },
          "163950656969ff1759-1": {
            "type": "featured_collection",
            "settings": {
              "collection": "frontpage"
            }
          },
          "163950656969ff1759-2": {
            "type": "featured_collection",
            "settings": {
              "collection": "madelen-mollard-1"
            }
          }
        },
        "block_order": [
          "163950656969ff1759-0",
          "163950656969ff1759-1",
          "163950656969ff1759-2"
        ],
        "settings": {
          "title": "Collections",
          "grid": 3
        }
      },
      "1639604468ed57a510": {
        "type": "contact-form",
        "settings": {
          "title": "Contact Us"
        }
      }
    },
    "content_for_index": [
      "163547328170d081f0",
      "163559028337573968",
      "hero-1",
      "1639506353eba48a0e",
      "163950656969ff1759",
      "1633543889eeb59dd7",
      "16355305004f3edda0",
      "1635531152fd21787b",
      "1633546353d363320e",
      "1639604468ed57a510",
      "1635532034aad4f39e",
      "1635532081e0631dd6"
    ]
  },
  "presets": {
    "Default": {
      "sections": {
        "header": {
          "type": "header",
          "settings": {}
        },
        "hero-1": {
          "type": "hero",
          "settings": {
            "hero_size": "large",
            "text_size": "large"
          }
        },
        "feature-row": {
          "type": "feature-row",
          "settings": {}
        },
        "feature-columns": {
          "type": "feature-columns",
          "blocks": {
            "feature-columns-0": {
              "type": "text_block",
              "settings": {}
            },
            "feature-columns-1": {
              "type": "text_block",
              "settings": {}
            },
            "feature-columns-2": {
              "type": "text_block",
              "settings": {}
            }
          },
          "block_order": [
            "feature-columns-0",
            "feature-columns-1",
            "feature-columns-2"
          ],
          "settings": {
            "title": ""
          }
        },
        "collection": {
          "type": "collection",
          "settings": {
            "grid": 4
          }
        },
        "hero-2": {
          "type": "hero",
          "settings": {
            "text_size": "large"
          }
        },
        "quotes": {
          "type": "quotes",
          "blocks": {
            "quotes-0": {
              "type": "quote",
              "settings": {}
            },
            "quotes-1": {
              "type": "quote",
              "settings": {}
            },
            "quotes-2": {
              "type": "quote",
              "settings": {}
            }
          },
          "block_order": [
            "quotes-0",
            "quotes-1",
            "quotes-2"
          ],
          "settings": {
            "title": ""
          }
        },
        "image-bar": {
          "type": "image-bar",
          "blocks": {
            "image-bar-0": {
              "type": "image",
              "settings": {}
            },
            "image-bar-1": {
              "type": "image",
              "settings": {}
            },
            "image-bar-2": {
              "type": "image",
              "settings": {}
            }
          },
          "block_order": [
            "image-bar-0",
            "image-bar-1",
            "image-bar-2"
          ],
          "settings": {}
        },
        "footer": {
          "type": "footer",
          "blocks": {
            "footer-0": {
              "type": "link_list",
              "settings": {}
            },
            "footer-1": {
              "type": "newsletter",
              "settings": {}
            }
          },
          "block_order": [
            "footer-0",
            "footer-1"
          ],
          "settings": {
            "show_payment_icons": true
          }
        }
      },
      "content_for_index": [
        "hero-1",
        "feature-row",
        "feature-columns",
        "collection",
        "hero-2",
        "quotes",
        "image-bar"
      ]
    },
    "Light": {
      "color_text": "#162950",
      "color_body_text": "#6d6d6d",
      "color_sale_text": "#DA2F0C",
      "color_borders": "#e4e4e4",
      "color_button": "#DA2F0C",
      "color_button_text": "#ffffff",
      "color_small_button_text_border": "#162950",
      "color_text_field": "#ffffff",
      "color_text_field_text": "#162950",
      "color_text_field_border": "#909090",
      "color_image_overlay_text": "#ffffff",
      "color_image_overlay": "#3d3d3d",
      "image_overlay_opacity": 40,
      "color_body_bg": "#f8f8f8",
      "type_header_font": "muli_n6",
      "type_header_base_size": 26,
      "type_base_font": "muli_n4",
      "type_base_size": 18,
      "share_facebook": true,
      "share_twitter": true,
      "share_pinterest": true,
      "social_twitter_link": "",
      "social_facebook_link": "",
      "social_pinterest_link": "",
      "social_instagram_link": "",
      "social_tumblr_link": "",
      "social_snapchat_link": "",
      "social_youtube_link": "",
      "social_vimeo_link": "",
      "favicon": "",
      "checkout_header_image": "",
      "checkout_logo_image": "",
      "checkout_logo_position": "left",
      "checkout_logo_size": "small",
      "checkout_body_background_image": "",
      "checkout_body_background_color": "#ffffff",
      "checkout_input_background_color_mode": "white",
      "checkout_sidebar_background_image": "",
      "checkout_sidebar_background_color": "#e8f3f6",
      "checkout_heading_font": "Roboto",
      "checkout_body_font": "Source Sans Pro",
      "checkout_accent_color": "#1990c6",
      "checkout_button_color": "#23314e",
      "checkout_error_color": "#ff6d6d",
      "sections": {
        "header": {
          "type": "header",
          "settings": {
            "align_logo": "left",
            "logo": "",
            "logo_max_width": 135,
            "main_linklist": "main-menu",
            "message": true,
            "color_bg": "#162950",
            "color_text": "#ffffff"
          }
        },
        "hero": {
          "type": "hero",
          "settings": {
            "alignment": "center",
            "hero_size": "x-large",
            "text_size": "large"
          }
        },
        "slideshow": {
          "type": "slideshow",
          "blocks": {
            "slideshow-0": {
              "type": "image",
              "settings": {
                "image": "",
                "alignment": "center center"
              }
            },
            "1492095993817": {
              "type": "image",
              "settings": {
                "image": "",
                "alignment": "center"
              }
            }
          },
          "block_order": [
            "slideshow-0",
            "1492095993817"
          ],
          "settings": {
            "slideshow_height": "medium",
            "text_size": "medium",
            "autorotate": false,
            "autorotate_speed": 5
          }
        },
        "featured-collections": {
          "type": "collection",
          "settings": {
            "grid": 3,
            "rows": 1,
            "show_vendor": true,
            "show_view_all": true
          }
        },
        "product-template": {
          "type": "product-template",
          "settings": {
            "show_quantity_selector": false,
            "show_vendor": false,
            "show_share_buttons": true,
            "media_size": "medium",
            "enable_image_zoom": true,
            "enable_video_looping": false
          }
        },
        "collection-template": {
          "type": "collection-template",
          "settings": {
            "layout": "grid",
            "grid": 2,
            "rows": 2,
            "show_collection_image": true,
            "show_vendor": false,
            "sort_enable": true,
            "tags_enable": true
          }
        },
        "1492033809691": {
          "type": "map",
          "settings": {}
        },
        "1492033877875": {
          "type": "quotes",
          "blocks": {
            "1492033877875-0": {
              "type": "quote",
              "settings": {}
            }
          },
          "block_order": [
            "1492033877875-0"
          ],
          "settings": {}
        },
        "1492033924902": {
          "type": "custom-content",
          "blocks": {
            "1492033924902-0": {
              "type": "text",
              "settings": {
                "width": "100%",
                "alignment": "center",
                "align_text": "center"
              }
            }
          },
          "block_order": [
            "1492033924902-0"
          ],
          "settings": {
            "title": ""
          }
        },
        "1492096252560": {
          "type": "collection-list",
          "blocks": {
            "1492096252560-0": {
              "type": "featured_collection",
              "settings": {}
            },
            "1492096252560-1": {
              "type": "featured_collection",
              "settings": {}
            },
            "1492096252560-2": {
              "type": "featured_collection",
              "settings": {}
            }
          },
          "block_order": [
            "1492096252560-0",
            "1492096252560-1",
            "1492096252560-2"
          ],
          "settings": {
            "grid": 3
          }
        },
        "blog-template": {
          "type": "blog-template",
          "settings": {
            "layout": "grid",
            "blog_show_author": true,
            "blog_show_date": false
          }
        },
        "article-template": {
          "type": "article-template",
          "settings": {
            "blog_show_author": true,
            "blog_show_date": true,
            "show_share_buttons": true
          }
        },
        "cart-template": {
          "type": "cart-template",
          "settings": {
            "cart_notes_enable": false
          }
        },
        "footer": {
          "type": "footer",
          "blocks": {
            "link_list": {
              "type": "link_list",
              "settings": {}
            },
            "text": {
              "type": "text",
              "settings": {}
            },
            "newsletter": {
              "type": "newsletter",
              "settings": {}
            }
          },
          "block_order": [
            "link_list",
            "text",
            "newsletter"
          ],
          "settings": {
            "color_footer_bg": "#f8f8f8",
            "color_footer_text": "#6d6d6d"
          }
        }
      },
      "content_for_index": [
        "hero",
        "featured-collections",
        "slideshow",
        "1492033924902",
        "1492096252560",
        "1492033877875",
        "1492033809691"
      ]
    }
  }
}